…
# here is my code:
source("pca_4_the_people.R")
```

To illustrate the code, consider the popular data example `nycflights13`
which contains a row for every flight departing from the 3 main New York
City airports during 2013 (LGA, JFK, and EWR). It includes things like
date, destination, and information about delays.

``` r
library(nycflights13)
flights
```

    ## # A tibble: 336,776 × 19
    ##     year month   day dep_time sched_dep_time dep_delay arr_time sched_arr_time
    ##    <int> <int> <int>    <int>          <int>     <dbl>    <int>          <int>
    ##  1  2013     1     1      517            515         2      830            819
    ##  2  2013     1     1      533            529         4      850            830
    ##  3  2013     1     1      542            540         2      923            850
    ##  4  2013     1     1      544            545        -1     1004           1022
    ##  5  2013     1     1      554            600        -6      812            837
    ##  6  2013     1     1      554            558        -4      740            728
    ##  7  2013     1     1      555            600        -5      913            854
    ##  8  2013     1     1      557            600        -3      709            723
    ##  9  2013     1     1      557            600        -3      838            846
    ## 10  2013     1     1      558            600        -2      753            745
    ## # ℹ 336,766 more rows
    ## # ℹ 11 more variables: arr_delay <dbl>, carrier <chr>, flight <int>,
    ## #   tailnum <chr>, origin <chr>, dest <chr>, air_time <dbl>, distance <dbl>,
    ## #   hour <dbl>, minute <dbl>, time_hour <dttm>
…
Second and third, tibbles that give basic information about the row and
column “universes”…

``` r
sparse_matrix_data$row_universe
```

    ## # A tibble: 365 × 3
    ##    month   day row_id
    ##    <int> <int>  <int>
    ##  1     1     1      1
    ##  2     1     2      2
    ##  3     1     3      3
    ##  4     1     4      4
    ##  5     1     5      5
    ##  6     1     6      6
    ##  7     1     7      7
    ##  8     1     8      8
    ##  9     1     9      9
    ## 10     1    10     10
    ## # ℹ 355 more rows

``` r
sparse_matrix_data$column_universe
```

    ## # A tibble: 105 × 2
    ##    dest  col_id
    ##    <chr>  <int>
    ##  1 IAH        1
    ##  2 MIA        2
    ##  3 BQN        3
    ##  4 ATL        4
    ##  5 ORD        5
    ##  6 FLL        6
    ##  7 IAD        7
    ##  8 MCO        8
    ##  9 PBI        9
    ## 10 TPA       10
    ## # ℹ 95 more rows
…
